{
  "groups": [
    {
      "name": "endpoints",
      "type": "com.welfare.restapi.config.EndpointsProperties",
      "sourceType": "com.welfare.restapi.config.EndpointsProperties"
    }
  ],
  "properties": [
    {
      "name": "endpoints.ruleEngine",
      "type": "java.lang.String",
      "sourceType": "com.welfare.restapi.config.EndpointsProperties"
    }
  ],
  "hints": []
}